-------------------------------------------------------------------------------
Test set: com.example.demo.SpringbootDockerDemoApplicationTests
-------------------------------------------------------------------------------
Tests run: 1, Failures: 0, Errors: 0, Skipped: 0, Time elapsed: 5.635 s - in com.example.demo.SpringbootDockerDemoApplicationTests
